<svg width="40" height="40" viewBox="0 0 40 40" fill="none" xmlns="http://www.w3.org/2000/svg">
    <path fill-rule="evenodd" clip-rule="evenodd" d="M22 12L20.9 13.1L26.9 19.2H10V20.8H26.9L20.9 26.9L22 28L30 20L22 12Z" fill="#6A6872"/>
    <rect x="0.5" y="0.5" width="39" height="39" rx="19.5" stroke="#434849"/>
</svg>
