<svg width="16" height="16" viewBox="0 0 16 16" fill="none" xmlns="http://www.w3.org/2000/svg">
<path d="M8 4.00004C8.36819 4.00004 8.66667 4.29852 8.66667 4.66671V8.66671C8.66667 9.0349 8.36819 9.33338 8 9.33338C7.63181 9.33338 7.33333 9.0349 7.33333 8.66671V4.66671C7.33333 4.29852 7.63181 4.00004 8 4.00004Z" fill="#6E747B"/>
<path d="M8 10.6667C7.63181 10.6667 7.33333 10.9652 7.33333 11.3334C7.33333 11.7016 7.63181 12 8 12C8.36819 12 8.66667 11.7016 8.66667 11.3334C8.66667 10.9652 8.36819 10.6667 8 10.6667Z" fill="#6E747B"/>
<path fill-rule="evenodd" clip-rule="evenodd" d="M8 1.33337C4.3181 1.33337 1.33333 4.31814 1.33333 8.00004C1.33333 11.6819 4.3181 14.6667 8 14.6667C11.6819 14.6667 14.6667 11.6819 14.6667 8.00004C14.6667 4.31814 11.6819 1.33337 8 1.33337ZM2.66667 8.00004C2.66667 10.9456 5.05448 13.3334 8 13.3334C10.9455 13.3334 13.3333 10.9456 13.3333 8.00004C13.3333 5.05452 10.9455 2.66671 8 2.66671C5.05448 2.66671 2.66667 5.05452 2.66667 8.00004Z" fill="#6E747B"/>
</svg>
