<?xml version="1.0" standalone="no"?>
<!DOCTYPE svg PUBLIC "-//W3C//DTD SVG 20010904//EN"
 "http://www.w3.org/TR/2001/REC-SVG-20010904/DTD/svg10.dtd">
<svg version="1.0" xmlns="http://www.w3.org/2000/svg"
 width="509.000000pt" height="509.000000pt" viewBox="0 0 509.000000 509.000000"
 preserveAspectRatio="xMidYMid meet">

<g transform="translate(0.000000,509.000000) scale(0.100000,-0.100000)"
fill="#000000" stroke="none">
    <circle xmlns="http://www.w3.org/2000/svg" cx="2500" cy="2500" r="2400" stroke="black" stroke-width="5" fill="white"/>
<path d="M2380 5084 c-19 -2 -78 -9 -130 -14 -232 -25 -515 -104 -742 -205
-525 -235 -959 -647 -1217 -1155 -181 -356 -266 -691 -278 -1095 -12 -427 62
-784 241 -1160 337 -706 984 -1220 1746 -1389 282 -62 685 -73 960 -27 1114
189 1953 1060 2112 2191 17 123 17 504 -1 630 -92 672 -420 1257 -936 1673
-348 281 -776 466 -1230 533 -97 14 -454 27 -525 18z m525 -343 c370 -62 704
-207 997 -433 702 -542 1014 -1447 798 -2309 -94 -375 -301 -738 -581 -1019
-328 -328 -734 -539 -1195 -622 -112 -20 -161 -23 -374 -22 -261 0 -343 9
-540 59 -650 165 -1193 615 -1480 1230 -127 271 -187 524 -197 835 -18 552
147 1053 487 1480 86 108 281 297 386 377 346 258 737 406 1184 447 104 9 398
-4 515 -23z" style="fill: #DC1900;"/>
<path d="M2335 4598 c-962 -108 -1708 -851 -1825 -1818 -15 -123 -12 -381 5
-513 95 -725 588 -1356 1273 -1631 244 -98 430 -135 709 -143 296 -8 469 16
717 98 654 218 1168 768 1341 1435 40 155 56 266 62 445 9 268 -21 482 -103
728 -255 766 -927 1311 -1729 1401 -107 12 -338 11 -450 -2z m-170 -591 c18
-26 20 -149 4 -196 -10 -27 -27 -39 -134 -90 -300 -144 -493 -326 -623 -586
-84 -169 -121 -320 -129 -530 -15 -389 101 -701 352 -949 105 -104 219 -185
384 -271 151 -79 161 -90 161 -188 0 -132 -29 -156 -140 -118 -243 84 -496
254 -656 439 -170 198 -305 473 -361 732 -14 67 -18 130 -18 295 0 183 3 223
23 313 109 488 402 866 837 1082 139 69 232 101 267 92 10 -2 25 -14 33 -25z
m980 -14 c563 -221 975 -803 975 -1378 0 -637 -332 -1197 -865 -1460 -198 -97
-257 -113 -295 -75 -17 17 -20 33 -20 108 0 64 4 94 16 110 8 12 70 50 137 83
228 114 378 233 502 397 159 212 232 427 241 717 9 251 -29 444 -126 640 -120
242 -313 424 -609 574 -102 52 -140 77 -149 96 -7 14 -12 62 -12 106 0 72 2
82 25 105 31 31 48 28 180 -23z m-471 -425 c7 -10 16 -64 20 -120 7 -113 15
-130 75 -149 114 -37 209 -113 259 -207 60 -114 66 -178 17 -200 -30 -14 -183
-16 -204 -3 -7 5 -30 39 -50 77 -25 47 -51 79 -80 99 -42 29 -45 30 -164 30
-107 0 -128 -3 -169 -23 -73 -36 -107 -108 -93 -198 14 -96 71 -126 339 -179
225 -44 319 -81 401 -156 115 -106 142 -335 59 -499 -56 -111 -142 -183 -276
-231 -48 -18 -93 -38 -100 -46 -8 -10 -12 -51 -13 -114 0 -133 -7 -140 -131
-140 -50 0 -98 3 -107 7 -24 9 -37 66 -37 160 0 95 -2 98 -86 120 -184 47
-313 173 -358 348 -17 63 -10 98 23 115 11 6 63 11 115 11 83 0 99 -3 116 -20
11 -11 20 -26 20 -32 0 -65 62 -153 131 -189 85 -43 256 -45 343 -4 45 21 101
86 117 133 28 85 -12 183 -92 223 -18 10 -108 34 -199 54 -287 64 -399 108
-463 185 -70 82 -98 199 -80 325 26 180 141 303 335 360 31 9 61 22 68 30 6 8
12 56 13 115 2 95 4 103 27 122 21 17 36 19 118 16 75 -2 96 -7 106 -20z" style="fill: #2875C8;"/>
</g>
</svg>
